hrac,prob,minuty,body
,,,
CLE,IND,-6,199
,,,
LeBron James,0.986,41.978,29.759
Kevin Love,0.982,31.598,16.101
Rodney Hood,0.975,19.361,9.318
Jordan Clarkson,0.9540000000000001,17.396,8.712
Kyle Korver,0.968,25.136,8.459
JR Smith,0.983,30.403000000000002,8.395
Jeff Green,0.986,20.675,8.147
George Hill,0.21,20.76,7.1160000000000005
Larry Nance Jr.,0.967,16.548000000000002,5.674
,,,
Victor Oladipo,0.989,39.018,22.983
Bojan Bogdanovic,0.994,33.377,13.389000000000001
Myles Turner,0.991,28.75,11.458
Darren Collison,0.982,30.404,11.329
Domantas Sabonis,0.993,24.888,11.28
Thaddeus Young,0.994,33.284,11.116
Lance Stephenson,0.993,23.561,9.447000000000001
Cory Joseph,0.995,22.383,6.695
Al Jefferson,0.167,6.187,3.665
,,,
,,,
HOU,UTA,-11.5,207
,,,
James Harden,0.997,36.319,29.38
Chris Paul,0.995,32.96,18.339
Eric Gordon,0.994,29.583000000000002,14.637
Clint Capela,0.995,30.05,13.022
Trevor Ariza,0.996,34.36,10.357000000000001
Gerald Green,0.9590000000000001,15.195,7.191
PJ Tucker,0.995,29.341,6.119
Ryan Anderson,0.9430000000000001,15.319,4.964
Luc Mbah a Moute,0.274,16.278,4.1770000000000005
,,,
Donovan Mitchell,0.993,37.32,23.288
Rudy Gobert,0.995,34.226,13.594
Ricky Rubio,0.332,29.288,12.496
Derrick Favors,0.994,30.243000000000002,12.243
Joe Ingles,0.996,34.356,11.498000000000001
Jae Crowder,0.994,26.924,9.981
Alec Burks,0.908,14.817,6.390000000000001
Royce O'Neale,0.99,20.537,5.996
Thabo Sefolosha,0.007,13.06,4.439
,,,
,,,